CSUF Math Projects - Project 1
…
• Variables removed: overall_hospital_rating | Trained

• Centering and scaling for: nurse_communication, ... | Trained

• Dummy variables from: <none> | Trained

• PCA extraction with: nurse_communication, ... | Trained

pca_baked <- pca_prep |>
  bake(new_data = NULL)

pca_tidy <- tidy(pca_prep, 4, type = "coef") # tidy step 4 - the PCA step
pca_tidy

# A tibble: 64 × 4
   terms                         value component id       
   <chr>                         <dbl> <chr>     <chr>    
 1 nurse_communication           0.389 PC1       pca_f9Ms4
 2 doctor_communication          0.363 PC1       pca_f9Ms4
 3 staff_responsiveness          0.374 PC1       pca_f9Ms4
 4 communication_about_medicines 0.379 PC1       pca_f9Ms4
 5 discharge_information         0.339 PC1       pca_f9Ms4
 6 care_transition               0.380 PC1       pca_f9Ms4
 7 cleanliness                   0.287 PC1       pca_f9Ms4
 8 quietness                     0.303 PC1       pca_f9Ms4
 9 nurse_communication           0.117 PC2       pca_f9Ms4
10 doctor_communication          0.161 PC2       pca_f9Ms4
# ℹ 54 more rows
…
